Load TINC input data. — load_TINC_input • TINC
…
#> ✔ Fortified CNAs for 993 segments: 993 clonal and 0 subclonal.
#> Warning: [CNAqc] a karyotype column is present in CNA calls, and will be overwritten
#> ✔ 993 mutations mapped to clonal CNAs.
#> 
#> 
#> ── Genome coverage by karyotype, in basepairs. ──
#> 
#> # A tibble: 1 × 4
#>   minor Major     n karyotype
#>   <dbl> <dbl> <dbl> <chr>    
#> 1     1     1  2979 1:1      
#> ✔ n = 993 mutations mapped to CNA segments with karyotype 1:1 (largest available in basepairs).
#> ✔ Mutation with VAF within 0 and 0.7 ~ n = 993.
#> $mutations
#> # A tibble: 993 × 12
#>    chr        from        to ref   alt   n_ref_count n_alt_count t_ref_count
#>    <chr>     <int>     <dbl> <chr> <chr>       <dbl>       <dbl>       <dbl>
#>  1 chr6   69891882  69891883 A     T              27           0          54
#>  2 chr16  79341649  79341650 A     G              36           0          62
#>  3 chr17  65866385  65866386 T     C              28           0          72
#>  4 chr22  20239983  20239984 C     C              28           0          65
#>  5 chr8   18486211  18486212 A     C              28           0          56
#>  6 chr10  28199619  28199620 T     C              24           0          57
#>  7 chr3  109757866 109757867 G     C              17           0          55
#>  8 chr13   7117394   7117395 A     A              24           0          75
#>  9 chr3  185536924 185536925 T     T              25           0          73
#> 10 chr22  31627373  31627374 G     T              37           0          65
#> # ℹ 983 more rows
#> # ℹ 4 more variables: t_alt_count <dbl>, karyotype <chr>, id <chr>,
#> #   OK_tumour <lgl>
…
