Generate a random dataset for TINC. — random_TIN • TINC
…
    Value

Tibbles with the data, and a plot.

    Examples

set.seed(1234)

# Default dataset
random_TIN()
#> ✔ Generated TINC dataset (n = 998 mutations), TIN (0.05) and TIT (1), normal and tumour coverage 30x and 120x.
#> Warning: Removed 2 rows containing missing values (`geom_bar()`).
#> Warning: Removed 2 rows containing missing values (`geom_bar()`).
#> $data
#> # A tibble: 998 × 14
#>    chr        from      to ref   alt   simulated_cluster n_tot_count t_tot_count
#>    <chr>     <int>   <dbl> <chr> <chr> <chr>                   <int>       <int>
#>  1 chr1  113343028  1.13e8 T     G     C1                         31         112
#>  2 chr16  59329064  5.93e7 T     A     C1                         31         122
#>  3 chr5  105526173  1.06e8 A     T     C1                         25         114
#>  4 chr10  74598357  7.46e7 G     A     C1                         31         116
#>  5 chr5    6576324  6.58e6 A     C     C1                         31         119
#>  6 chr20  16494596  1.65e7 G     C     C1                         24         119
#>  7 chr16  35775461  3.58e7 G     T     C1                         37         140
#>  8 chr21  15292946  1.53e7 A     T     C1                         31          95
#>  9 chr11  90487911  9.05e7 T     A     C1                         28         113
#> 10 chr9  106757539  1.07e8 A     A     C1                         25          97
#> # ℹ 988 more rows
#> # ℹ 6 more variables: n_alt_count <dbl>, t_alt_count <dbl>, n_ref_count <dbl>,
#> #   t_ref_count <dbl>, sim_t_vaf <dbl>, sim_n_vaf <dbl>
#> 
#> $cna
#> # A tibble: 998 × 6
#>    chr        from        to ref   Major minor
#>    <chr>     <dbl>     <dbl> <chr> <dbl> <dbl>
#>  1 chr1  113343027 113343030 T         1     1
#>  2 chr16  59329063  59329066 T         1     1
#>  3 chr5  105526172 105526175 A         1     1
#>  4 chr10  74598356  74598359 G         1     1
#>  5 chr5    6576323   6576326 A         1     1
#>  6 chr20  16494595  16494598 G         1     1
#>  7 chr16  35775460  35775463 G         1     1
#>  8 chr21  15292945  15292948 A         1     1
#>  9 chr11  90487910  90487913 T         1     1
#> 10 chr9  106757538 106757541 A         1     1
#> # ℹ 988 more rows
…
