TINC analysis • TINC
…
Example simulated inputs

TIN provides a function to generate a random dataset to test the tool. The input TIN and TIT parameters can be specified.

Note: the sampler generates VAFs using MOBSTER, and then samples some clonal mutations and contaminates the normal. This process is noisy and might return slightly lower values for the actual TIT estimate. The best setup to test TINC is with a simulated BAM file - e.g., created via BAMSurgeon.

set.seed(1234)

# Sample data from a tumour with 80% purity, and 10% contamination in the normal
sampled_data = random_TIN(TIT = .8, TIN = 0.1)

print(sampled_data)
#> $data
#> # A tibble: 993 × 14
#>    chr        from       to ref   alt   simulated_clust… n_tot_count t_tot_count
#>    <chr>     <int>    <dbl> <chr> <chr> <chr>                  <int>       <int>
#>  1 chr18  33860136   3.39e7 A     A     C1                        27         117
#>  2 chr18  28173591   2.82e7 C     G     C1                        35         119
#>  3 chr10  52898080   5.29e7 G     T     C1                        34         120
#>  4 chr8   93470255   9.35e7 T     C     C1                        33         117
#>  5 chr19  31335571   3.13e7 T     T     C1                        32         124
#>  6 chr18  58377450   5.84e7 G     T     C1                        32         110
#>  7 chr19  21375348   2.14e7 T     A     C1                        29         124
#>  8 chr17  27652549   2.77e7 A     T     C1                        38         136
#>  9 chr1  246404286   2.46e8 A     A     C1                        31         112
#> 10 chr20  42661362   4.27e7 G     C     C1                        21         111
#> # … with 983 more rows, and 6 more variables: n_alt_count <dbl>,
#> #   t_alt_count <dbl>, n_ref_count <dbl>, t_ref_count <dbl>, sim_t_vaf <dbl>,
#> #   sim_n_vaf <dbl>
#> 
#> $cna
#> # A tibble: 993 × 6
#>    chr        from        to ref   Major minor
#>    <chr>     <dbl>     <dbl> <chr> <dbl> <dbl>
#>  1 chr18  33860135  33860138 A         1     1
#>  2 chr18  28173590  28173593 C         1     1
#>  3 chr10  52898079  52898082 G         1     1
#>  4 chr8   93470254  93470257 T         1     1
#>  5 chr19  31335570  31335573 T         1     1
#>  6 chr18  58377449  58377452 G         1     1
#>  7 chr19  21375347  21375350 T         1     1
#>  8 chr17  27652548  27652551 A         1     1
#>  9 chr1  246404285 246404288 A         1     1
#> 10 chr20  42661361  42661364 G         1     1
#> # … with 983 more rows
…
#> ℹ Input n = 993 mutations for 993 CNA segments (993 clonal, 0 subclonal)
#> Warning in map_mutations_to_segments(snvs, cna %>% filter(CCF == 1)): [CNAqc] a
#> karyotype column is present in CNA calls, and will be overwritten
#> ✓ Mapped n = 993 mutations to clonal segments (100% of input)
#> 
#> ── Genome coverage by karyotype, in basepairs. ──
#> 
#> # A tibble: 1 × 4
#>   minor Major     n karyotype
#>   <dbl> <dbl> <dbl> <chr>    
#> 1     1     1  2979 1:1
#> ✓ n = 993 mutations mapped to CNA segments with karyotype 1:1 (largest available in basepairs).
#> ✓ Mutation with VAF within 0 and 0.7 ~ n = 993.
#> $mutations
#> # A tibble: 993 × 12
#>    chr        from        to ref   alt   n_ref_count n_alt_count t_ref_count
#>    <chr>     <int>     <dbl> <chr> <chr>       <dbl>       <dbl>       <dbl>
#>  1 chr18  33860136  33860137 A     A              26           1          79
#>  2 chr18  28173591  28173592 C     G              34           1          67
#>  3 chr10  52898080  52898081 G     T              33           1          66
#>  4 chr8   93470255  93470256 T     C              31           2          60
#>  5 chr19  31335571  31335572 T     T              31           1          78
#>  6 chr18  58377450  58377451 G     T              31           1          66
#>  7 chr19  21375348  21375349 T     A              28           1          72
#>  8 chr17  27652549  27652550 A     T              37           1          84
#>  9 chr1  246404286 246404287 A     A              30           1          67
#> 10 chr20  42661362  42661363 G     C              21           0          72
#> # … with 983 more rows, and 4 more variables: t_alt_count <dbl>,
#> #   karyotype <chr>, id <chr>, OK_tumour <lgl>
…
