TINC introduction • TINC
…
Optionally, allele-specific copy number segments can also be imputed.

These data must follow the format for input in the CNAqc package:

genomic coordinates of a segment: chr, from and to

the allele-specific ploidy value for the Major and minor alleles

# devtools::install_github("caravagnalab/CNAqc")
require(CNAqc)
#> Loading required package: CNAqc

# This is the format
CNAqc::example_dataset_CNAqc$cna %>% print
#> # A tibble: 267 x 7
#>    chr       from       to  length covRatio Major minor
#>    <chr>    <int>    <int>   <int>    <dbl> <dbl> <dbl>
#>  1 chr1    840009  1689987  849979     1.19     3     2
#>  2 chr1   1689988  1815015  125028     1.26     3     2
#>  3 chr1   1815016  9799969 7984954     1.19     3     2
#>  4 chr1  10479910 12079917 1600008     1.19     3     2
#>  5 chr1  12079917 12154980   75064     1.24     3     2
#>  6 chr1  12154981 12839977  684997     1.19     3     2
#>  7 chr1  13780016 17790026 4010011     1.19     3     2
#>  8 chr1  17849962 21080067 3230106     1.19     3     2
#>  9 chr1  21080068 21559998  479931     1.26     3     2
#> 10 chr1  21559998 24830001 3270004     1.19     3     2
#> # … with 257 more rows
…
Simulating inputs

TIN provides a function to generate a random dataset to test the tool. The input TIN and TIT parameters can be specified.

Note: the sampler generates VAFs using MOBSTER, and then samples some clonal mutations and contaminates the normal. This process is noisy and might return slightly lower values for the actual TIT estimate. The best setup to test TINC is with a simulated BAM file - e.g., created via BAMSurgeon.

set.seed(1234)

# Sample data from a tumour with 80% purity, and 10% contamination in the normal
sampled_data = random_TIN(TIT = .8, TIN = 0.1)

print(sampled_data)
#> $data
#> # A tibble: 989 x 14
#>    chr        from       to ref   alt   simulated_clust… n_tot_count t_tot_count
#>    <chr>     <int>    <dbl> <chr> <chr> <chr>                  <int>       <int>
#>  1 chr15  29381781   2.94e7 T     G     C1                        36         116
#>  2 chr17  58334108   5.83e7 A     C     C1                        29         109
#>  3 chr5  129338750   1.29e8 G     T     C1                        24         134
#>  4 chr9  123253567   1.23e8 T     A     C1                        32         120
#>  5 chr4  119382925   1.19e8 C     G     C1                        27         116
#>  6 chr18  34332231   3.43e7 C     T     C1                        35         105
#>  7 chr19  13536511   1.35e7 C     A     C1                        38         135
#>  8 chr10 110519736   1.11e8 T     G     C1                        34         111
#>  9 chr17  30053897   3.01e7 T     C     C1                        30         129
#> 10 chr2   62512365   6.25e7 C     C     C1                        29         129
#> # … with 979 more rows, and 6 more variables: n_alt_count <dbl>,
#> #   t_alt_count <dbl>, n_ref_count <dbl>, t_ref_count <dbl>, sim_t_vaf <dbl>,
#> #   sim_n_vaf <dbl>
#> 
#> $cna
#> # A tibble: 989 x 6
#>    chr        from        to ref   Major minor
#>    <chr>     <dbl>     <dbl> <chr> <dbl> <dbl>
#>  1 chr15  29381780  29381783 T         1     1
#>  2 chr17  58334107  58334110 A         1     1
#>  3 chr5  129338749 129338752 G         1     1
#>  4 chr9  123253566 123253569 T         1     1
#>  5 chr4  119382924 119382927 C         1     1
#>  6 chr18  34332230  34332233 C         1     1
#>  7 chr19  13536510  13536513 C         1     1
#>  8 chr10 110519735 110519738 T         1     1
#>  9 chr17  30053896  30053899 T         1     1
#> 10 chr2   62512364  62512367 C         1     1
#> # … with 979 more rows
…
#> ℹ Input n = 989 mutations for 989 CNA segments (989 clonal, 0 subclonal)
#> Warning in map_mutations_to_segments(snvs, cna %>% filter(CCF == 1)): [CNAqc] a
#> karyotype column is present in CNA calls, and will be overwritten
#> ✓ Mapped n = 989 mutations to clonal segments (100% of input)
#> 
#> ── Genome coverage by karyotype, in basepairs. ──
#> 
#> # A tibble: 1 x 4
#>   minor Major     n karyotype
#>   <dbl> <dbl> <dbl> <chr>    
#> 1     1     1  2967 1:1
#> ✓ n = 989 mutations mapped to CNA segments with karyotype 1:1 (largest available in basepairs).
#> ✓ Mutation with VAF within 0 and 0.7 ~ n = 989.
#> $mutations
#> # A tibble: 989 x 12
#>    chr        from        to ref   alt   n_ref_count n_alt_count t_ref_count
#>    <chr>     <int>     <dbl> <chr> <chr>       <dbl>       <dbl>       <dbl>
#>  1 chr15  29381781  29381782 T     G              35           1          76
#>  2 chr17  58334108  58334109 A     C              28           1          67
#>  3 chr5  129338750 129338751 G     T              23           1          81
#>  4 chr9  123253567 123253568 T     A              31           1          74
#>  5 chr4  119382925 119382926 C     G              26           1          72
#>  6 chr18  34332231  34332232 C     T              34           1          62
#>  7 chr19  13536511  13536512 C     A              37           1          83
#>  8 chr10 110519736 110519737 T     G              33           1          69
#>  9 chr17  30053897  30053898 T     C              29           1          78
#> 10 chr2   62512365  62512366 C     C              28           1          79
#> # … with 979 more rows, and 4 more variables: t_alt_count <dbl>,
#> #   karyotype <chr>, id <chr>, OK_tumour <lgl>
…
