Load TINC input data. — load_TINC_input • TINC
…
#> Warning: [CNAqc] a karyotype column is present in CNA calls, and will be overwritten
#> 
#> ✓ Mapped n = 997 mutations to clonal segments (100% of input)
#> 
#> 
#> ── Genome coverage by karyotype, in basepairs. ──
#> 
#> # A tibble: 1 x 4
#>   minor Major     n karyotype
#>   <dbl> <dbl> <dbl> <chr>    
#> 1     1     1  2991 1:1      
#> ✓ n = 997 mutations mapped to CNA segments with karyotype 1:1 (largest available in basepairs).
#> ✓ Mutation with VAF within 0 and 0.7 ~ n = 995.
#> $mutations
#> # A tibble: 997 x 12
#>    chr        from        to ref   alt   n_ref_count n_alt_count t_ref_count
#>    <chr>     <int>     <dbl> <chr> <chr>       <dbl>       <dbl>       <dbl>
#>  1 chr15  29675019  29675020 T     C              25           0          53
#>  2 chr7  127986905 127986906 G     G              21           0          67
#>  3 chr10  84255144  84255145 A     A              24           0          53
#>  4 chr19  38367178  38367179 T     A              25           0          62
#>  5 chr10  26886489  26886490 C     C              28           0          56
#>  6 chr12  10757148  10757149 C     C              33           0          42
#>  7 chr6   36997904  36997905 G     T              26           0          62
#>  8 chr8   56370544  56370545 G     C              37           0          70
#>  9 chr20  34992347  34992348 A     T              31           0          53
#> 10 chr5  116203285 116203286 G     G              32           0          57
#> # … with 987 more rows, and 4 more variables: t_alt_count <dbl>,
#> #   karyotype <chr>, id <chr>, OK_tumour <lgl>
…
