Generate a random dataset for TINC. — random_TIN • TINC
…
    Tibbles with the data, and a plot.

    Examples

set.seed(1234)

# Default dataset
random_TIN()

#> ✓ Generated TINC dataset (n = 994 mutations), TIN (0.05) and TIT (1), normal and tumour coverage 30x and 120x.
#> Warning: Removed 2 rows containing missing values (geom_bar).
#> Warning: Removed 2 rows containing missing values (geom_bar).
#> $data
#> # A tibble: 994 x 14
#>    chr        from       to ref   alt   simulated_clust… n_tot_count t_tot_count
#>    <chr>     <int>    <dbl> <chr> <chr> <chr>                  <int>       <int>
#>  1 chr2  145490974   1.45e8 A     C     C1                        30         118
#>  2 chr1  127225700   1.27e8 G     A     C1                        33         124
#>  3 chr20  26326170   2.63e7 G     T     C1                        28         125
#>  4 chr2   62266603   6.23e7 G     C     C1                        32         121
#>  5 chr10 104063912   1.04e8 T     A     C1                        31          92
#>  6 chr17  43214595   4.32e7 C     C     C1                        29         111
#>  7 chr4   10690955   1.07e7 G     C     C1                        37         117
#>  8 chr14  59688040   5.97e7 T     C     C1                        20         112
#>  9 chr12  95149798   9.51e7 G     G     C1                        31         113
#> 10 chr18   7569358   7.57e6 C     T     C1                        27         116
#> # … with 984 more rows, and 6 more variables: n_alt_count <dbl>,
#> #   t_alt_count <dbl>, n_ref_count <dbl>, t_ref_count <dbl>, sim_t_vaf <dbl>,
#> #   sim_n_vaf <dbl>
#> 
#> $cna
#> # A tibble: 994 x 6
#>    chr        from        to ref   Major minor
#>    <chr>     <dbl>     <dbl> <chr> <dbl> <dbl>
#>  1 chr2  145490973 145490976 A         1     1
#>  2 chr1  127225699 127225702 G         1     1
#>  3 chr20  26326169  26326172 G         1     1
#>  4 chr2   62266602  62266605 G         1     1
#>  5 chr10 104063911 104063914 T         1     1
#>  6 chr17  43214594  43214597 C         1     1
#>  7 chr4   10690954  10690957 G         1     1
#>  8 chr14  59688039  59688042 T         1     1
#>  9 chr12  95149797  95149800 G         1     1
#> 10 chr18   7569357   7569360 C         1     1
#> # … with 984 more rows
…
