TINC analysis • TINC
…
Example simulated inputs

TIN provides a function to generate a random dataset to test the tool. The input TIN and TIT parameters can be specified.

Note: the sampler generates VAFs using MOBSTER, and then samples some clonal mutations and contaminates the normal. This process is noisy and might return slightly lower values for the actual TIT estimate. The best setup to test TINC is with a simulated BAM file - e.g., created via BAMSurgeon.

set.seed(1234)

# Sample data from a tumour with 80% purity, and 10% contamination in the normal
sampled_data = random_TIN(TIT = .8, TIN = 0.1)

print(sampled_data)
#> $data
#> # A tibble: 995 × 14
#>    chr        from       to ref   alt   simulated_clust… n_tot_count t_tot_count
#>    <chr>     <int>    <dbl> <chr> <chr> <chr>                  <int>       <int>
#>  1 chr2   79428815   7.94e7 C     T     C1                        24         138
#>  2 chr5  115979395   1.16e8 C     A     C1                        23         120
#>  3 chr4   19850350   1.99e7 C     C     C1                        33         132
#>  4 chr16  79585444   7.96e7 C     C     C1                        37         114
#>  5 chr10  75573241   7.56e7 A     G     C1                        33         131
#>  6 chr20  56028967   5.60e7 G     C     C1                        29         118
#>  7 chr7   47030220   4.70e7 A     G     C1                        29         103
#>  8 chr21  20153237   2.02e7 T     T     C1                        38         135
#>  9 chr7  116719847   1.17e8 T     A     C1                        33         109
#> 10 chr1   56648935   5.66e7 T     T     C1                        31         119
#> # … with 985 more rows, and 6 more variables: n_alt_count <dbl>,
#> #   t_alt_count <dbl>, n_ref_count <dbl>, t_ref_count <dbl>, sim_t_vaf <dbl>,
#> #   sim_n_vaf <dbl>
#> 
#> $cna
#> # A tibble: 995 × 6
#>    chr        from        to ref   Major minor
#>    <chr>     <dbl>     <dbl> <chr> <dbl> <dbl>
#>  1 chr2   79428814  79428817 C         1     1
#>  2 chr5  115979394 115979397 C         1     1
#>  3 chr4   19850349  19850352 C         1     1
#>  4 chr16  79585443  79585446 C         1     1
#>  5 chr10  75573240  75573243 A         1     1
#>  6 chr20  56028966  56028969 G         1     1
#>  7 chr7   47030219  47030222 A         1     1
#>  8 chr21  20153236  20153239 T         1     1
#>  9 chr7  116719846 116719849 T         1     1
#> 10 chr1   56648934  56648937 T         1     1
#> # … with 985 more rows
…
#> ℹ Input n = 995 mutations for 995 CNA segments (995 clonal, 0 subclonal)
#> Warning in map_mutations_to_segments(snvs, cna %>% filter(CCF == 1)): [CNAqc] a
#> karyotype column is present in CNA calls, and will be overwritten
#> ✔ Mapped n = 995 mutations to clonal segments (100% of input)
#> 
#> ── Genome coverage by karyotype, in basepairs. ──
#> 
#> # A tibble: 1 × 4
#>   minor Major     n karyotype
#>   <dbl> <dbl> <dbl> <chr>    
#> 1     1     1  2985 1:1
#> ✔ n = 995 mutations mapped to CNA segments with karyotype 1:1 (largest available in basepairs).
#> ✔ Mutation with VAF within 0 and 0.7 ~ n = 995.
#> $mutations
#> # A tibble: 995 × 12
#>    chr        from        to ref   alt   n_ref_count n_alt_count t_ref_count
#>    <chr>     <int>     <dbl> <chr> <chr>       <dbl>       <dbl>       <dbl>
#>  1 chr2   79428815  79428816 C     T              24           0          96
#>  2 chr5  115979395 115979396 C     A              22           1          72
#>  3 chr4   19850350  19850351 C     C              32           1          77
#>  4 chr16  79585444  79585445 C     C              36           1          70
#>  5 chr10  75573241  75573242 A     G              32           1          75
#>  6 chr20  56028967  56028968 G     C              28           1          75
#>  7 chr7   47030220  47030221 A     G              28           1          67
#>  8 chr21  20153237  20153238 T     T              37           1          95
#>  9 chr7  116719847 116719848 T     A              32           1          71
#> 10 chr1   56648935  56648936 T     T              30           1          76
#> # … with 985 more rows, and 4 more variables: t_alt_count <dbl>,
#> #   karyotype <chr>, id <chr>, OK_tumour <lgl>
…
