TINC introduction • TINC
…
Copy number segments data must follow the formats from the CNAqc package:

genomic coordinates of a segment: chr,
from and to

the allele-specific ploidy value for the Major and
minor alleles

# devtools::install_github("caravagnalab/CNAqc")
require(CNAqc)
#> Loading required package: CNAqc

# This is the format
CNAqc::example_dataset_CNAqc$cna %>% print
#> # A tibble: 267 × 7
#>    chr       from       to  length covRatio Major minor
#>    <chr>    <int>    <int>   <int>    <dbl> <dbl> <dbl>
#>  1 chr1    840009  1689987  849979     1.19     3     2
#>  2 chr1   1689988  1815015  125028     1.26     3     2
#>  3 chr1   1815016  9799969 7984954     1.19     3     2
#>  4 chr1  10479910 12079917 1600008     1.19     3     2
#>  5 chr1  12079917 12154980   75064     1.24     3     2
#>  6 chr1  12154981 12839977  684997     1.19     3     2
#>  7 chr1  13780016 17790026 4010011     1.19     3     2
#>  8 chr1  17849962 21080067 3230106     1.19     3     2
#>  9 chr1  21080068 21559998  479931     1.26     3     2
#> 10 chr1  21559998 24830001 3270004     1.19     3     2
#> # ℹ 257 more rows
…
